{"total_results": 360121, "total_pages": 18007, "page": 1, "results": [{"poster_path": "/jjPJ4s3DWZZvI4vw8Xfi4Vqa1Q8.jpg", "title": "Fifty Shades Freed", "overview": "Believing they have left behind shadowy figures from their past, newlyweds Christian and Ana fully embrace an inextricable connection and shared life of luxury. But just as she steps into her role as Mrs. Grey and he relaxes into an unfamiliar stability, new threats could jeopardize their happy ending before it even begins.", "release_date": "2018-02-07", "popularity": 538.57963199999995, "original_title": "Fifty Shades Freed", "backdrop_path": "/9ywA15OAiwjSTvg3cBs9B7kOCBF.jpg", "vote_count": 1732, "video": false, "adult": false, "vote_average": 6, "genre_ids": [18, 10749], "id": 337167, "original_language": "en"}, {"poster_path": "/7WsyChQLEftFiDOVTGkv3hFpyyt.jpg", "title": "Avengers: Infinity War", "overview": "As the Avengers and their allies have continued to protect the world from threats too large for any one hero to handle, a new danger has emerged from the cosmic shadows: Thanos. A despot of intergalactic infamy, his goal is to collect all six Infinity Stones, artifacts of unimaginable power, and use them to inflict his twisted will on all of reality. Everything the Avengers have fought for has led up to this moment - the fate of Earth and existence itself has never been more uncertain.", "release_date": "2018-04-25", "popularity": 517.57714799999997, "original_title": "Avengers: Infinity War", "backdrop_path": "/bOGkgRGdhrBYJSLpXaxhXVstddV.jpg", "vote_count": 3071, "video": false, "adult": false, "vote_average": 8.5999999999999996, "genre_ids": [12, 878, 14, 28], "id": 299536, "original_language": "en"}, {"poster_path": "/uxzzxijgPIY7slzFvMotPv8wjKA.jpg", "title": "Black Panther", "overview": "King T'Challa returns home from America to the reclusive, technologically advanced African nation of Wakanda to serve as his country's new leader. However, T'Challa soon finds that he is challenged for the throne by factions within his own country as well as without. Using powers reserved to Wakandan kings, T'Challa assumes the Black Panther mantel to join with girlfriend Nakia, the queen-mother, his princess-kid sister, members of the Dora Milaje (the Wakandan 'special forces') and an American secret agent, to prevent Wakanda from being dragged into a world war.", "release_date": "2018-02-13", "popularity": 280.69598100000002, "original_title": "Black Panther", "backdrop_path": "/AlFqBwJnokrp9zWTXOUv7uhkaeq.jpg", "vote_count": 5007, "video": false, "adult": false, "vote_average": 7.2999999999999998, "genre_ids": [28, 12, 14, 878], "id": 284054, "original_language": "en"}, {"poster_path": "/y31QB9kn3XSudA15tV7UWQ9XLuW.jpg", "title": "Guardians of the Galaxy", "overview": "Light years from Earth, 26 years after being abducted, Peter Quill finds himself the prime target of a manhunt after discovering an orb wanted by Ronan the Accuser.", "release_date": "2014-07-30", "popularity": 173.66662500000001, "original_title": "Guardians of the Galaxy", "backdrop_path": "/bHarw8xrmQeqf3t8HpuMY7zoK4x.jpg", "vote_count": 12969, "video": false, "adult": false, "vote_average": 7.9000000000000004, "genre_ids": [28, 878, 12], "id": 118340, "original_language": "en"}, {"poster_path": "/sM33SANp9z6rXW8Itn7NnG1GOEs.jpg", "title": "Zootopia", "overview": "Determined to prove herself, Officer Judy Hopps, the first bunny on Zootopia's police force, jumps at the chance to crack her first case - even if it means partnering with scam-artist fox Nick Wilde to solve the mystery.", "release_date": "2016-02-11", "popularity": 172.849334, "original_title": "Zootopia", "backdrop_path": "/mhdeE1yShHTaDbJVdWyTlzFvNkr.jpg", "vote_count": 7130, "video": false, "adult": false, "vote_average": 7.7000000000000002, "genre_ids": [16, 12, 10751, 35], "id": 269149, "original_language": "en"}, {"poster_path": "/rzRwTcFvttcN1ZpX2xv4j3tSdJu.jpg", "title": "Thor: Ragnarok", "overview": "Thor is imprisoned on the other side of the universe and finds himself in a race against time to get back to Asgard to stop Ragnarok, the prophecy of destruction to his homeworld and the end of Asgardian civilization, at the hands of an all-powerful new threat, the ruthless Hela.", "release_date": "2017-10-25", "popularity": 167.06024300000001, "original_title": "Thor: Ragnarok", "backdrop_path": "/kaIfm5ryEOwYg8mLbq8HkPuM1Fo.jpg", "vote_count": 6124, "video": false, "adult": false, "vote_average": 7.4000000000000004, "genre_ids": [28, 12, 14], "id": 284053, "original_language": "en"}, {"poster_path": "/30oXQKwibh0uANGMs0Sytw3uN22.jpg", "title": "Rampage", "overview": "Primatologist Davis Okoye shares an unshakable bond with George, the extraordinarily intelligent, silverback gorilla who has been in his care since birth.  But a rogue genetic experiment gone awry mutates this gentle ape into a raging creature of enormous size.  To make matters worse, it\u2019s soon discovered there are other similarly altered animals.  As these newly created alpha predators tear across North America, destroying everything in their path, Okoye teams with a discredited genetic engineer to secure an antidote, fighting his way through an ever-changing battlefield, not only to halt a global catastrophe but to save the fearsome creature that was once his friend.", "release_date": "2018-04-12", "popularity": 149.971474, "original_title": "Rampage", "backdrop_path": "/wrqUiMXttHE4UBFMhLHlN601MZh.jpg", "vote_count": 482, "video": false, "adult": false, "vote_average": 5.9000000000000004, "genre_ids": [28, 12, 878], "id": 427641, "original_language": "en"}, {"poster_path": "/cGhdduplj8YdAwg7iPCeGjO1YvZ.jpg", "title": "Kamen Rider Heisei Generations FINAL: Build & Ex-Aid with Legend Riders", "overview": "Kamen Riders Build and Ex-Aid team up with the legendary heroes of the Heisei Generation - OOO, Fourze, Gaim, and Ghost.", "release_date": "2017-12-09", "popularity": 121.084789, "original_title": "\u4eee\u9762\u30e9\u30a4\u30c0\u30fc\u5e73\u6210\u30b8\u30a7\u30cd\u30ec\u30fc\u30b7\u30e7\u30f3\u30baFINAL \u30d3\u30eb\u30c9\uff06\u30a8\u30b0\u30bc\u30a4\u30c9with\u30ec\u30b8\u30a7\u30f3\u30c9\u30e9\u30a4\u30c0\u30fc", "backdrop_path": "/aVnvDWF7dELkSzYJfzK9yrpvbv9.jpg", "vote_count": 5, "video": false, "adult": false, "vote_average": 5, "genre_ids": [28, 12, 878], "id": 479363, "original_language": "ja"}, {"poster_path": "/cezWGskPY5x7GaglTTRN4Fugfb8.jpg", "title": "The Avengers", "overview": "When an unexpected enemy emerges and threatens global safety and security, Nick Fury, director of the international peacekeeping agency known as S.H.I.E.L.D., finds himself in need of a team to pull the world back from the brink of disaster. Spanning the globe, a daring recruitment effort begins!", "release_date": "2012-04-25", "popularity": 120.469695, "original_title": "The Avengers", "backdrop_path": "/hbn46fQaRmlpBuUrEiFqv0GDL6Y.jpg", "vote_count": 14696, "video": false, "adult": false, "vote_average": 7.5, "genre_ids": [878, 28, 12], "id": 24428, "original_language": "en"}, {"poster_path": "/coss7RgL0NH6g4fC2s5atvf3dFO.jpg", "title": "The Maze Runner", "overview": "Set in a post-apocalyptic world, young Thomas is deposited in a community of boys after his memory is erased, soon learning they're all trapped in a maze that will require him to join forces with fellow \u201crunners\u201d for a shot at escape.", "release_date": "2014-09-10", "popularity": 118.318704, "original_title": "The Maze Runner", "backdrop_path": "/lkOZcsXcOLZYeJ2YxJd3vSldvU4.jpg", "vote_count": 7760, "video": false, "adult": false, "vote_average": 7, "genre_ids": [28, 9648, 878, 53], "id": 198663, "original_language": "en"}, {"poster_path": "/eKi8dIrr8voobbaGzDpe8w0PVbC.jpg", "title": "Coco", "overview": "Despite his family\u2019s baffling generations-old ban on music, Miguel dreams of becoming an accomplished musician like his idol, Ernesto de la Cruz. Desperate to prove his talent, Miguel finds himself in the stunning and colorful Land of the Dead following a mysterious chain of events. Along the way, he meets charming trickster Hector, and together, they set off on an extraordinary journey to unlock the real story behind Miguel's family history.", "release_date": "2017-10-27", "popularity": 114.03201, "original_title": "Coco", "backdrop_path": "/askg3SMvhqEl4OL52YuvdtY40Yb.jpg", "vote_count": 4265, "video": false, "adult": false, "vote_average": 7.7999999999999998, "genre_ids": [12, 35, 10751, 16], "id": 354912, "original_language": "en"}, {"poster_path": "/tWqifoYuwLETmmasnGHO7xBjEtt.jpg", "title": "Beauty and the Beast", "overview": "A live-action adaptation of Disney's version of the classic tale of a cursed prince and a beautiful young woman who helps him break the spell.", "release_date": "2017-03-16", "popularity": 112.246207, "original_title": "Beauty and the Beast", "backdrop_path": "/6aUWe0GSl69wMTSWWexsorMIvwU.jpg", "vote_count": 8136, "video": false, "adult": false, "vote_average": 6.7999999999999998, "genre_ids": [10751, 14, 10749], "id": 321612, "original_language": "en"}, {"poster_path": "/kOVEVeg59E0wsnXmF9nrh6OmWII.jpg", "title": "Star Wars: The Last Jedi", "overview": "Rey develops her newly discovered abilities with the guidance of Luke Skywalker, who is unsettled by the strength of her powers. Meanwhile, the Resistance prepares to do battle with the First Order.", "release_date": "2017-12-13", "popularity": 104.000772, "original_title": "Star Wars: The Last Jedi", "backdrop_path": "/bIUaCtWaRgd78SnoHJDI8TNf7Sd.jpg", "vote_count": 5333, "video": false, "adult": false, "vote_average": 7.0999999999999996, "genre_ids": [14, 12, 878], "id": 181808, "original_language": "en"}, {"poster_path": "/bIuOWTtyFPjsFDevqvF3QrD1aun.jpg", "title": "Thor", "overview": "Against his father Odin's will, The Mighty Thor - a powerful but arrogant warrior god - recklessly reignites an ancient war. Thor is cast down to Earth and forced to live among humans as punishment. Once here, Thor learns what it takes to be a true hero when the most dangerous villain of his world sends the darkest forces of Asgard to invade Earth.", "release_date": "2011-04-21", "popularity": 103.913729, "original_title": "Thor", "backdrop_path": "/LvmmDZxkTDqp0DX7mUo621ahdX.jpg", "vote_count": 8826, "video": false, "adult": false, "vote_average": 6.5999999999999996, "genre_ids": [12, 14, 28], "id": 10195, "original_language": "en"}, {"poster_path": "/r70GGoZ5PqqokDDRnVfTN7PPDtJ.jpg", "title": "Dirty Dead Con Men", "overview": "A cool and dangerous neo-noir crime film that revolves around the disturbed lives of two unlikely partners: Mickey Rady, a rogue undercover cop and Kook Packard, a smooth and charismatic con man. Together they rip off those operating outside of the law...for their own personal gain. But things go awry when one heist suck them deep into a city-wide conspiracy...", "release_date": "2018-01-02", "popularity": 102.09945399999999, "original_title": "Dirty Dead Con Men", "backdrop_path": "/75RJi3yVZnZtVj4Kn1bYGzkhiEx.jpg", "vote_count": 1, "video": false, "adult": false, "vote_average": 4, "genre_ids": [], "id": 510819, "original_language": "en"}, {"poster_path": "/4lJS2NUtcgyJPjOPfFlXcHzHu0D.jpg", "title": "What the Waters Left Behind", "overview": "Epecu\u00e9n was one of the most important touristic villages of Argentina. Thousands of people concurred, attracted by the healing properties of its thermal waters. On November 10th 1985, a huge volume of water broke the protecting embankment and the village was submerged under ten meters of salt water. Epecu\u00e9n disappeared. Thirty years later, the waters receded and the ruins of Epecu\u00e9n emerged exposing a bleak and deserted landscape. The residents never returned.  The plot revolves around a group of young people that take a trip to the ruins in order to film a documentary about Epecu\u00e9n. Ignoring the warnings, and after a brief tour, they get stranded in the abandoned village. Contrary to what they thought, they begin to realize that they are really not alone\u2026", "release_date": "2017-10-11", "popularity": 98.542557000000002, "original_title": "Los olvidados", "backdrop_path": "/ufyPovbgRKlKTWrlzDFgULfgfyi.jpg", "vote_count": 15, "video": false, "adult": false, "vote_average": 5.4000000000000004, "genre_ids": [27], "id": 462593, "original_language": "es"}, {"poster_path": "/t90Y3G8UGQp0f0DrP60wRu9gfrH.jpg", "title": "Avengers: Age of Ultron", "overview": "When Tony Stark tries to jumpstart a dormant peacekeeping program, things go awry and Earth\u2019s Mightiest Heroes are put to the ultimate test as the fate of the planet hangs in the balance. As the villainous Ultron emerges, it is up to The Avengers to stop him from enacting his terrible plans, and soon uneasy alliances and unexpected action pave the way for an epic and unique global adventure.", "release_date": "2015-04-22", "popularity": 93.832119000000006, "original_title": "Avengers: Age of Ultron", "backdrop_path": "/rFtsE7Lhlc2jRWF7SRAU0fvrveQ.jpg", "vote_count": 9107, "video": false, "adult": false, "vote_average": 7.2999999999999998, "genre_ids": [28, 12, 878], "id": 99861, "original_language": "en"}, {"poster_path": "/bnX5PqAdQZRXSw3aX3DutDcdso5.jpg", "title": "Thor: The Dark World", "overview": "Thor fights to restore order across the cosmos\u2026 but an ancient race led by the vengeful Malekith returns to plunge the universe back into darkness. Faced with an enemy that even Odin and Asgard cannot withstand, Thor must embark on his most perilous and personal journey yet, one that will reunite him with Jane Foster and force him to sacrifice everything to save us all.", "release_date": "2013-10-29", "popularity": 93.230951000000005, "original_title": "Thor: The Dark World", "backdrop_path": "/3FweBee0xZoY77uO1bhUOlQorNH.jpg", "vote_count": 6827, "video": false, "adult": false, "vote_average": 6.7000000000000002, "genre_ids": [28, 12, 14], "id": 76338, "original_language": "en"}, {"poster_path": "/pU1ULUq8D3iRxl1fdX2lZIzdHuI.jpg", "title": "Ready Player One", "overview": "When the creator of a popular video game system dies, a virtual contest is created to compete for his fortune.", "release_date": "2018-03-28", "popularity": 91.314780999999996, "original_title": "Ready Player One", "backdrop_path": "/q7fXcrDPJcf6t3rzutaNwTzuKP1.jpg", "vote_count": 1829, "video": false, "adult": false, "vote_average": 7.7999999999999998, "genre_ids": [12, 878, 28], "id": 333339, "original_language": "en"}, {"poster_path": "/nrsx0jEaBgXq4PWo7SooSnYJTv.jpg", "title": "Geostorm", "overview": "After an unprecedented series of natural disasters threatened the planet, the world's leaders came together to create an intricate network of satellites to control the global climate and keep everyone safe. But now, something has gone wrong: the system built to protect Earth is attacking it, and it becomes a race against the clock to uncover the real threat before a worldwide geostorm wipes out everything and everyone along with it.", "release_date": "2017-10-13", "popularity": 89.019642000000005, "original_title": "Geostorm", "backdrop_path": "/79X8JkGxzc1tJMi0KxUSaPLooVg.jpg", "vote_count": 1348, "video": false, "adult": false, "vote_average": 5.7000000000000002, "genre_ids": [28, 878, 53], "id": 274855, "original_language": "en"}]}